%YAML 1.1
%TAG !u! tag:unity3d.com,2011:
--- !u!1045 &1
EditorBuildSettings:
  m_ObjectHideFlags: 0
  serializedVersion: 2
  m_Scenes:
  - enabled: 1
    path: Assets/Levels/First.unity
    guid: f4e64aa923aa34444a7656c03117c37d
  - enabled: 1
    path: Assets/Levels/Bootleneck.unity
    guid: fe8a5dd6dac8942749b55d439b0cb19a
  - enabled: 1
    path: Assets/Levels/Up and Down.unity
    guid: 23c63e3fdefaa4204a986f90c6d52c1f
  - enabled: 1
    path: Assets/Levels/Back and Forth.unity
    guid: a858b768ed68f4d6895e23eac910f413
  - enabled: 1
    path: Assets/Levels/Dark.unity
    guid: d08052d4fc6ab4d1eaf0f26639bfb511
  m_configObjects: {}
